Project 1: Exploratory Data Analysis on World Happiness Report Data
…
3. Wrangling (40 pts)

Happiness %>% summarize_if(is.numeric, c(mean = mean, min = min, 
    max = max, n_distinct = n_distinct)) %>% pivot_longer(contains("_"))

## # A tibble: 36 x 2
##    name                                 value
##    <chr>                                <dbl>
##  1 Happiness Rank_mean                79.5   
##  2 Happiness Score_mean                5.38  
##  3 Standard Error_mean                 0.0479
##  4 Economy (GDP per Capita)_mean       0.846 
##  5 Family_mean                         0.991 
##  6 Health (Life Expectancy)_mean       0.630 
##  7 Freedom_mean                        0.429 
##  8 Trust (Government Corruption)_mean  0.143 
##  9 Generosity_mean                     0.237 
## 10 Happiness Rank_min                  1     
## # … with 26 more rows

Happiness %>% group_by(Region) %>% summarize_if(is.numeric, c(mean = mean, 
    sd = sd, min = min, max = max, n_distinct = n_distinct)) %>% 
    pivot_longer(contains("_"))

## # A tibble: 450 x 3
##    Region                    name                                value
##    <chr>                     <chr>                               <dbl>
##  1 Australia and New Zealand Happiness Rank_mean                9.5   
##  2 Australia and New Zealand Happiness Score_mean               7.28  
##  3 Australia and New Zealand Standard Error_mean                0.0373
##  4 Australia and New Zealand Economy (GDP per Capita)_mean      1.29  
##  5 Australia and New Zealand Family_mean                        1.31  
##  6 Australia and New Zealand Health (Life Expectancy)_mean      0.920 
##  7 Australia and New Zealand Freedom_mean                       0.645 
##  8 Australia and New Zealand Trust (Government Corruption)_mean 0.393 
##  9 Australia and New Zealand Generosity_mean                    0.455 
## 10 Australia and New Zealand Happiness Rank_sd                  0.707 
## # … with 440 more rows
…
Happiness %>% filter(Region == "Sub-Saharan Africa") %>% arrange("Happiness.Rank)", 
    desc())

## # A tibble: 40 x 11
##    Country Region `Happiness Rank` `Happiness Scor… `Standard Error`
##    <chr>   <chr>             <dbl>            <dbl>            <dbl>
##  1 Maurit… Sub-S…               71             5.48           0.0720
##  2 Nigeria Sub-S…               78             5.27           0.0419
##  3 Zambia  Sub-S…               85             5.13           0.0699
##  4 Somali… Sub-S…               91             5.06           0.0616
##  5 Mozamb… Sub-S…               94             4.97           0.0790
##  6 Lesotho Sub-S…               97             4.90           0.0944
##  7 Swazil… Sub-S…              101             4.87           0.0874
##  8 South … Sub-S…              113             4.64           0.0458
##  9 Ghana   Sub-S…              114             4.63           0.0474
## 10 Zimbab… Sub-S…              115             4.61           0.0429
## # … with 30 more rows, and 6 more variables: `Economy (GDP per Capita)` <dbl>,
## #   Family <dbl>, `Health (Life Expectancy)` <dbl>, Freedom <dbl>, `Trust
## #   (Government Corruption)` <dbl>, Generosity <dbl>
…
